<?xml version="1.0" encoding="UTF-8" standalone="no"?>
<svg
   xmlns:dc="http://purl.org/dc/elements/1.1/"
   xmlns:cc="http://creativecommons.org/ns#"
   xmlns:rdf="http://www.w3.org/1999/02/22-rdf-syntax-ns#"
   xmlns:svg="http://www.w3.org/2000/svg"
   xmlns="http://www.w3.org/2000/svg"
   id="svg375"
   version="1.1"
   width="32"
   viewBox="0 0 32 32"
   height="32">
  <metadata
     id="metadata381">
    <rdf:RDF>
      <cc:Work
         rdf:about="">
        <dc:format>image/svg+xml</dc:format>
        <dc:type
           rdf:resource="http://purl.org/dc/dcmitype/StillImage" />
        <dc:title></dc:title>
      </cc:Work>
    </rdf:RDF>
  </metadata>
  <defs
     id="defs379" />
  <g
     id="g373"
     transform="translate(2)"
     fill="none">
    <path
       id="path357"
       fill="#fb0"
       d="m8.55232047 12.9376982c-.69356579.8996871-1.077696 1.8872622-1.077696 3.0623526 0 1.1762065.38656605 2.1619548 1.08439435 3.0583942.81291503 1.0442392 2.04970968 1.9668963 3.61282068 2.9217586.3318304.2027043.6796282.4072018 1.0394014.6144396-.1279757.0714129-.2536173.1420486-.3845362.2145443-.8707969.4823028-1.7711943.9810798-2.6627284 1.5288076-.088328.0542964-.17675751.1093026-.26511928.1646807-.31457757-.2048349-.62570438-.4137303-.9277991-.6319285-1.25830988-.9088209-2.384923-1.9459898-3.20643089-3.198955-.84809758-1.2934925-1.37092754-2.8169892-1.37092754-4.6717417 0-1.8517754.52289804-3.3756109 1.36879639-4.6730948l-4.17107013-2.40816365v14.16238255l6.30924357 3.6426246c.79931573-.6743512 1.67931416-1.2813475 2.59165298-1.8418636.8708984-.5350423 1.7667627-1.03179 2.6381686-1.5144646.2471558-.136907.4887978-.271716.7259402-.4051048v-3.034342h-2.104344l1.9805968-3.436943h.1237472v-.4910643-.0000338z" />
    <path
       id="path359"
       fill="#fb0"
       d="m11.0203366 28.5249228 2.836103 1.6374004v-3.3572079c-1.0584474.5942435-2.0059012 1.1565522-2.836103 1.7198075z" />
    <path
       id="path361"
       fill="#eac36a"
       d="m13.8564649 1.8374656-.0000338.00003375-2.7941885 1.61324567c.3510792.23731142.7185994.47482647 1.1129123.71511505.3313906.2019264.6786809.40611957 1.0378114.61328931-.0895119.05020277-.1770618.09969455-.2681977.15050589-.9095651.5073024-1.8501177 1.03185746-2.7676664 1.60238662-.0888693.05524306-.1750999.11021556-.26160111.16522182-.31444218-.20361775-.62563689-.41109178-.92800198-.62749731-.36305483-.259808-.71156294-.53308044-1.04877219-.81565498l-6.34730117 3.66457891v.00011636l4.17107025 2.40816361c1.14457652-1.75556503 2.88346374-3.09476085 4.7457937-4.25273321.9039494-.56207244 1.8360785-1.08199273 2.7418887-1.58719767.205986-.11484975.4073372-.22800873.6062527-.34028742.0000338-.00003375.0000989-.00003375.0001338-.00005818 1.0402133-.58737687 1.9730531-1.1425472 2.7933088-1.69643229z" />
    <path
       id="path363"
       fill="#eac36a"
       d="m19.7737635 5.25384029c-.7941399.66437178-1.6660195 1.264704-2.5689544 1.82038226-.8514124.52397963-1.7258291 1.0123712-2.5768359 1.4869952-.2628189.14661585-.5199208.29093061-.7714067.43358836-.000034.00003433-.0000989.00003433-.0001338.00005818-2.3693618 1.34393131-4.21876911 2.53488741-5.30411066 3.94282401l5.30410906 3.0622948 5.2997807-3.0598154c-.8143023-1.0567557-2.053465-1.9930122-3.6259468-2.96116913-.329936-.20314455-.6751627-.40808151-1.0323311-.61565719.1446873-.08139287.2870743-.16200785.4354153-.24472029.8086528-.45101033 1.7251527-.96220334 2.6002124-1.50073018.0874822-.05382226.1749981-.10838924.2625478-.16325935.313529.20551215.6236073.41501615.9247546.63365411 1.2686959.92123637 2.4048145 1.97092153 3.2302801 3.23823023l4.1703599-2.40775808v-.00005818z" />
    <path
       id="path369"
       fill="#fb0"
       d="m.66937775 8.38645585-.66937775-.38646458v15.99988193l.00010124.0000675 13.85632986 7.9999918v-.7728285l-13.18698528-7.6135936-.00006807-.0000337z" />
    <path
       id="path371"
       fill="#eac36a"
       d="m0 7.99989004v.00010123l.66937775.38646458v-.00016872l13.18705335-7.61339229.0001014-.00006749 13.1869514 7.61345978v.00016872l.6693784-.38646458v-.00010123l-13.8563298-7.99989004-.0001014.00006749z" />
  </g>
  <path
     id="path497"
     d="m 29.043416,23.613511 -13.186883,7.613663 -1.02e-4,-6.9e-5 v 0.772828 l 1.02e-4,6.8e-5 13.856194,-8.000059 1.35e-4,-6.8e-5 V 7.9999913 L 29.043484,8.3864558 V 23.613478 Z"
     style="fill:#0b772f" />
  <path
     id="path495"
     d="m 18.693583,28.52439 c -0.361465,-0.245531 -0.740893,-0.490895 -1.148704,-0.738761 -0.332642,-0.202163 -0.681286,-0.406322 -1.041938,-0.613357 0.10054,-0.05602 0.199017,-0.111365 0.301519,-0.168131 0.901886,-0.499556 1.834455,-1.016161 2.745914,-1.579044 0.08704,-0.05376 0.175878,-0.10964 0.264714,-0.165594 0.313021,0.202636 0.622727,0.409197 0.923537,0.624824 0.372256,0.266811 0.729255,0.547965 1.074042,0.839269 l 6.30877,-3.642388 5.8e-5,-3.3e-5 V 8.9187577 l -4.17036,2.4077583 c 0.650569,0.998739 1.108413,2.13249 1.284765,3.446077 H 22.085355 C 21.914358,14.109304 21.59386,13.50816 21.156212,12.940168 l -5.299781,3.059815 v 3.4e-5 0.491064 h 0.850567 5.506611 3.092834 c -0.06671,1.302187 -0.399557,2.434585 -0.921574,3.436943 -0.13349,0.256324 -0.280614,0.503277 -0.437785,0.743126 -1.141565,1.742067 -2.873416,3.066446 -4.726307,4.210785 -0.896947,0.553953 -1.821533,1.066194 -2.720137,1.563923 -0.218976,0.121312 -0.433047,0.240728 -0.644074,0.359198 -3.4e-5,3.4e-5 -9.9e-5,3.4e-5 -1.33e-4,5.8e-5 l -2e-6,3.357241 z"
     style="fill:#0b772f" />
  <path
     id="path485"
     d="m 20.358248,19.928024 h -4.501817 v 3.034342 c 3.3e-5,-3.4e-5 9.9e-5,-3.4e-5 1.33e-4,-5.8e-5 1.858508,-1.045863 3.399494,-1.997139 4.501684,-3.034284 z"
     style="fill:#0b772f" />
</svg>
